12/13/2006 8:38:20 AM	ServerOk	Server01
12/13/2006 8:38:44 AM	ServerOk	Server02
12/13/2006 8:56:58 AM	ServerError	Server01
12/13/2006 8:57:00 AM	ServerOk	Server02
12/13/2006 9:01:00 AM	ServerReset	Server01