Line 30: Class ShortCut.Telnet of control Telnet1 was not a loaded control class.
Line 33: The property name _ExtentX in Telnet1 is invalid.
Line 34: The property name _ExtentY in Telnet1 is invalid.
